rv64uf-p-fadd: fail
rv64uf-p-fclass: fail
rv64uf-p-fcmp: fail
rv64uf-p-fcvt: fail
rv64uf-p-fcvt_w: fail
rv64uf-p-fdiv: fail
rv64uf-p-fmadd: fail
rv64uf-p-fmin: fail
rv64uf-p-ldst: success
rv64uf-p-move: fail
rv64uf-p-recoding: success
rv64uf-v-fadd: fail
rv64uf-v-fclass: fail
rv64uf-v-fcmp: fail
rv64uf-v-fcvt: fail
rv64uf-v-fcvt_w: fail
rv64uf-v-fdiv: fail
rv64uf-v-fmadd: fail
rv64uf-v-fmin: fail
rv64uf-v-ldst: fail
rv64uf-v-move: fail
rv64uf-v-recoding: fail
